TAF2 OE AS analysis
…
diff_psi_df |>
  mutate(method = 'diff')  -> set_diff

Code

cols_to_keep <- c("GENE", 'EVENT', 'Sample', 'PSI', 'method')

rbind( unique(set_cmpr[, cols_to_keep]) ,
       unique(set_tidy[, cols_to_keep]) ,
       unique(set_diff[, cols_to_keep]) ) |>
  pivot_wider(id_cols = c(GENE, EVENT, method), names_from = Sample, values_from = PSI ) |>
  mutate(method = factor(method, levels = c('compare', 'tidy', 'diff'))) |>
  print(n = 5) -> ALL_DSE_WIDE

# A tibble: 2,064 × 15
  GENE   EVENT method HeLa_FRT HeLa_FRT_A HeLa_FRT_B HeLa_FRT_C HeLa_NLSTAF2dIDR
  <chr>  <chr> <fct>     <dbl>      <dbl>      <dbl>      <dbl>            <dbl>
1 SLC25… HsaE… compa…     70.3       75.5       85.8       49.2             49.8
2 CELSR3 HsaE… compa…     84.3       62.5      100         88.9             59.0
3 LTK    HsaE… compa…    100        100        100        100               80.9
4 SPEG   HsaE… compa…     93.3       84.6      100        100               77.1
5 TRNT1  HsaE… compa…     60.1       49.7       72.0       57.3             42.0
# ℹ 2,059 more rows
# ℹ 7 more variables: HeLa_NLSTAF2dIDR_A <dbl>, HeLa_NLSTAF2dIDR_B <dbl>,
#   HeLa_NLSTAF2dIDR_C <dbl>, HeLa_TAF2 <dbl>, HeLa_TAF2_A <dbl>,
#   HeLa_TAF2_B <dbl>, HeLa_TAF2_C <dbl>
…
